%YAML 1.1
%TAG !u! tag:unity3d.com,2011:
--- !u!1045 &1
EditorBuildSettings:
  m_ObjectHideFlags: 0
  serializedVersion: 2
  m_Scenes:
  - enabled: 1
    path: Assets/_App/Scenes/Production/Level_01_f.unity
    guid: 55688b622bd2d444992206033a6584b5
  - enabled: 1
    path: Assets/_App/Scenes/Production/Level_02_f.unity
    guid: b0721af6145cd8749aa8553f803a0e63
